%YAML 1.1
%TAG !u! tag:unity3d.com,2011:
--- !u!221 &22100000
AnimatorOverrideController:
  m_ObjectHideFlags: 0
  m_PrefabParentObject: {fileID: 0}
  m_PrefabInternal: {fileID: 0}
  m_Name: WizardOverride
  m_Controller: {fileID: 9100000, guid: 9a231fd11ce93ac41a2e2a3078336ab3, type: 2}
  m_Clips:
  - m_OriginalClip: {fileID: 7400000, guid: b7e3c76ff3d1c9944be56aeebf5a6d92, type: 3}
    m_OverrideClip: {fileID: 7400000, guid: 0e54098584dfcc74c833b53693a838d6, type: 3}
  - m_OriginalClip: {fileID: 7400000, guid: 01de7a41069f3ee43a9fc61236015c9a, type: 3}
    m_OverrideClip: {fileID: 7400000, guid: 9ff272937a2e38345b7744741107a253, type: 3}
  - m_OriginalClip: {fileID: 7400000, guid: 9b8f1ed23e1027d45921b0e2faea51d1, type: 3}
    m_OverrideClip: {fileID: 7400000, guid: 70a5c4e1879f40247b8d711399967bc9, type: 3}
  - m_OriginalClip: {fileID: 7400000, guid: 64a14be0a69246d4b90048aa46710dc2, type: 3}
    m_OverrideClip: {fileID: 7400000, guid: 1745735f1007a354a99ff73206a25c44, type: 3}
