%YAML 1.1
%TAG !u! tag:unity3d.com,2011:
--- !u!29 &1
OcclusionCullingSettings:
  m_ObjectHideFlags: 0
  serializedVersion: 2
  m_OcclusionBakeSettings:
    smallestOccluder: 5
    smallestHole: 0.25
    backfaceThreshold: 100
  m_SceneGUID: 00000000000000000000000000000000
  m_OcclusionCullingData: {fileID: 0}
--- !u!104 &2
RenderSettings:
  m_ObjectHideFlags: 0
  serializedVersion: 8
  m_Fog: 0
  m_FogColor: {r: 0.5, g: 0.5, b: 0.5, a: 1}
  m_FogMode: 3
  m_FogDensity: 0.01
  m_LinearFogStart: 0
  m_LinearFogEnd: 300
  m_AmbientSkyColor: {r: 0.212, g: 0.227, b: 0.259, a: 1}
  m_AmbientEquatorColor: {r: 0.114, g: 0.125, b: 0.133, a: 1}
  m_AmbientGroundColor: {r: 0.047, g: 0.043, b: 0.035, a: 1}
  m_AmbientIntensity: 1
  m_AmbientMode: 0
  m_SubtractiveShadowColor: {r: 0.42, g: 0.478, b: 0.627, a: 1}
  m_SkyboxMaterial: {fileID: 10304, guid: 0000000000000000f000000000000000, type: 0}
  m_HaloStrength: 0.5
  m_FlareStrength: 1
  m_FlareFadeSpeed: 3
  m_HaloTexture: {fileID: 0}
  m_SpotCookie: {fileID: 10001, guid: 0000000000000000e000000000000000, type: 0}
  m_DefaultReflectionMode: 0
  m_DefaultReflectionResolution: 128
  m_ReflectionBounces: 1
  m_ReflectionIntensity: 1
  m_CustomReflection: {fileID: 0}
  m_Sun: {fileID: 0}
  m_IndirectSpecularColor: {r: 0, g: 0, b: 0, a: 1}
--- !u!157 &3
LightmapSettings:
  m_ObjectHideFlags: 0
  serializedVersion: 11
  m_GIWorkflowMode: 0
  m_GISettings:
    serializedVersion: 2
    m_BounceScale: 1
    m_IndirectOutputScale: 1
    m_AlbedoBoost: 1
    m_TemporalCoherenceThreshold: 1
    m_EnvironmentLightingMode: 0
    m_EnableBakedLightmaps: 1
    m_EnableRealtimeLightmaps: 1
  m_LightmapEditorSettings:
    serializedVersion: 9
    m_Resolution: 2
    m_BakeResolution: 40
    m_TextureWidth: 1024
    m_TextureHeight: 1024
    m_AO: 0
    m_AOMaxDistance: 1
    m_CompAOExponent: 1
    m_CompAOExponentDirect: 0
    m_Padding: 2
    m_LightmapParameters: {fileID: 0}
    m_LightmapsBakeMode: 1
    m_TextureCompression: 1
    m_FinalGather: 0
    m_FinalGatherFiltering: 1
    m_FinalGatherRayCount: 256
    m_ReflectionCompression: 2
    m_MixedBakeMode: 2
    m_BakeBackend: 0
    m_PVRSampling: 1
    m_PVRDirectSampleCount: 32
    m_PVRSampleCount: 500
    m_PVRBounces: 2
    m_PVRFiltering: 0
    m_PVRFilteringMode: 1
    m_PVRCulling: 1
    m_PVRFilteringGaussRadiusDirect: 1
    m_PVRFilteringGaussRadiusIndirect: 5
    m_PVRFilteringGaussRadiusAO: 2
    m_PVRFilteringAtrousColorSigma: 1
    m_PVRFilteringAtrousNormalSigma: 1
    m_PVRFilteringAtrousPositionSigma: 1
  m_LightingDataAsset: {fileID: 0}
  m_UseShadowmask: 1
--- !u!196 &4
NavMeshSettings:
  serializedVersion: 2
  m_ObjectHideFlags: 0
  m_BuildSettings:
    serializedVersion: 2
    agentTypeID: 0
    agentRadius: 0.5
    agentHeight: 2
    agentSlope: 45
    agentClimb: 0.4
    ledgeDropHeight: 0
    maxJumpAcrossDistance: 0
    minRegionArea: 2
    manualCellSize: 0
    cellSize: 0.16666667
    manualTileSize: 0
    tileSize: 256
    accuratePlacement: 0
  m_NavMeshData: {fileID: 0}
--- !u!1 &36758598
GameObject:
  m_ObjectHideFlags: 0
  m_PrefabParentObject: {fileID: 1902644749702062, guid: e6fd1715965d63043a413dea8f583622,
    type: 2}
  m_PrefabInternal: {fileID: 695932033}
  serializedVersion: 5
  m_Component:
  - component: {fileID: 36758599}
  - component: {fileID: 36758601}
  - component: {fileID: 36758600}
  m_Layer: 0
  m_Name: chest_wooden_2
  m_TagString: Untagged
  m_Icon: {fileID: 0}
  m_NavMeshLayer: 0
  m_StaticEditorFlags: 0
  m_IsActive: 1
--- !u!4 &36758599
Transform:
  m_ObjectHideFlags: 0
  m_PrefabParentObject: {fileID: 4612075213376068, guid: e6fd1715965d63043a413dea8f583622,
    type: 2}
  m_PrefabInternal: {fileID: 695932033}
  m_GameObject: {fileID: 36758598}
  m_LocalRotation: {x: 0, y: -0, z: -0, w: 1}
  m_LocalPosition: {x: -0, y: -0.42687324, z: 0.35}
  m_LocalScale: {x: 1, y: 1, z: 1}
  m_Children:
  - {fileID: 65777433}
  m_Father: {fileID: 367816533}
  m_RootOrder: 0
  m_LocalEulerAnglesHint: {x: 0, y: 0, z: 0}
--- !u!23 &36758600
MeshRenderer:
  m_ObjectHideFlags: 0
  m_PrefabParentObject: {fileID: 23172618222647504, guid: e6fd1715965d63043a413dea8f583622,
    type: 2}
  m_PrefabInternal: {fileID: 695932033}
  m_GameObject: {fileID: 36758598}
  m_Enabled: 1
  m_CastShadows: 1
  m_ReceiveShadows: 1
  m_MotionVectors: 1
  m_LightProbeUsage: 1
  m_ReflectionProbeUsage: 1
  m_Materials:
  - {fileID: 2100000, guid: 1e8a3cd951c32fe4ba92fd9376c6de37, type: 2}
  m_StaticBatchInfo:
    firstSubMesh: 0
    subMeshCount: 0
  m_StaticBatchRoot: {fileID: 0}
  m_ProbeAnchor: {fileID: 0}
  m_LightProbeVolumeOverride: {fileID: 0}
  m_ScaleInLightmap: 1
  m_PreserveUVs: 0
  m_IgnoreNormalsForChartDetection: 0
  m_ImportantGI: 0
  m_SelectedEditorRenderState: 3
  m_MinimumChartSize: 4
  m_AutoUVMaxDistance: 0.5
  m_AutoUVMaxAngle: 89
  m_LightmapParameters: {fileID: 0}
  m_SortingLayerID: 0
  m_SortingLayer: 0
  m_SortingOrder: 0
--- !u!33 &36758601
MeshFilter:
  m_ObjectHideFlags: 0
  m_PrefabParentObject: {fileID: 33982448297768522, guid: e6fd1715965d63043a413dea8f583622,
    type: 2}
  m_PrefabInternal: {fileID: 695932033}
  m_GameObject: {fileID: 36758598}
  m_Mesh: {fileID: 4300006, guid: 8c801f3e38e05f043911897bee63d4e2, type: 3}
--- !u!1 &65777432
GameObject:
  m_ObjectHideFlags: 0
  m_PrefabParentObject: {fileID: 1243379713807396, guid: e6fd1715965d63043a413dea8f583622,
    type: 2}
  m_PrefabInternal: {fileID: 695932033}
  serializedVersion: 5
  m_Component:
  - component: {fileID: 65777433}
  - component: {fileID: 65777435}
  - component: {fileID: 65777434}
  m_Layer: 0
  m_Name: chest_wooden_3
  m_TagString: Untagged
  m_Icon: {fileID: 0}
  m_NavMeshLayer: 0
  m_StaticEditorFlags: 0
  m_IsActive: 1
--- !u!4 &65777433
Transform:
  m_ObjectHideFlags: 0
  m_PrefabParentObject: {fileID: 4581575582285718, guid: e6fd1715965d63043a413dea8f583622,
    type: 2}
  m_PrefabInternal: {fileID: 695932033}
  m_GameObject: {fileID: 65777432}
  m_LocalRotation: {x: 0, y: -0, z: -0, w: 1}
  m_LocalPosition: {x: -0.0000000667572, y: -0.000022898099, z: 0.017554078}
  m_LocalScale: {x: 1, y: 1, z: 1}
  m_Children: []
  m_Father: {fileID: 36758599}
  m_RootOrder: 0
  m_LocalEulerAnglesHint: {x: 0, y: 0, z: 0}
--- !u!23 &65777434
MeshRenderer:
  m_ObjectHideFlags: 0
  m_PrefabParentObject: {fileID: 23749974487126636, guid: e6fd1715965d63043a413dea8f583622,
    type: 2}
  m_PrefabInternal: {fileID: 695932033}
  m_GameObject: {fileID: 65777432}
  m_Enabled: 1
  m_CastShadows: 1
  m_ReceiveShadows: 1
  m_MotionVectors: 1
  m_LightProbeUsage: 1
  m_ReflectionProbeUsage: 1
  m_Materials:
  - {fileID: 2100000, guid: 1e8a3cd951c32fe4ba92fd9376c6de37, type: 2}
  m_StaticBatchInfo:
    firstSubMesh: 0
    subMeshCount: 0
  m_StaticBatchRoot: {fileID: 0}
  m_ProbeAnchor: {fileID: 0}
  m_LightProbeVolumeOverride: {fileID: 0}
  m_ScaleInLightmap: 1
  m_PreserveUVs: 0
  m_IgnoreNormalsForChartDetection: 0
  m_ImportantGI: 0
  m_SelectedEditorRenderState: 3
  m_MinimumChartSize: 4
  m_AutoUVMaxDistance: 0.5
  m_AutoUVMaxAngle: 89
  m_LightmapParameters: {fileID: 0}
  m_SortingLayerID: 0
  m_SortingLayer: 0
  m_SortingOrder: 0
--- !u!33 &65777435
MeshFilter:
  m_ObjectHideFlags: 0
  m_PrefabParentObject: {fileID: 33657951590578048, guid: e6fd1715965d63043a413dea8f583622,
    type: 2}
  m_PrefabInternal: {fileID: 695932033}
  m_GameObject: {fileID: 65777432}
  m_Mesh: {fileID: 4300008, guid: 8c801f3e38e05f043911897bee63d4e2, type: 3}
--- !u!1 &367816532
GameObject:
  m_ObjectHideFlags: 0
  m_PrefabParentObject: {fileID: 1544191852190126, guid: e6fd1715965d63043a413dea8f583622,
    type: 2}
  m_PrefabInternal: {fileID: 695932033}
  serializedVersion: 5
  m_Component:
  - component: {fileID: 367816533}
  - component: {fileID: 367816536}
  - component: {fileID: 367816535}
  - component: {fileID: 367816534}
  m_Layer: 0
  m_Name: chest_wooden
  m_TagString: Untagged
  m_Icon: {fileID: 0}
  m_NavMeshLayer: 0
  m_StaticEditorFlags: 0
  m_IsActive: 1
--- !u!4 &367816533
Transform:
  m_ObjectHideFlags: 0
  m_PrefabParentObject: {fileID: 4922331647626204, guid: e6fd1715965d63043a413dea8f583622,
    type: 2}
  m_PrefabInternal: {fileID: 695932033}
  m_GameObject: {fileID: 367816532}
  m_LocalRotation: {x: -0.7071068, y: 0, z: 0, w: 0.7071068}
  m_LocalPosition: {x: 0, y: 0, z: 0}
  m_LocalScale: {x: 1, y: 1, z: 1}
  m_Children:
  - {fileID: 36758599}
  - {fileID: 1561544491}
  m_Father: {fileID: 970391987}
  m_RootOrder: 0
  m_LocalEulerAnglesHint: {x: -90, y: 0, z: 0}
--- !u!95 &367816534
Animator:
  serializedVersion: 3
  m_ObjectHideFlags: 0
  m_PrefabParentObject: {fileID: 95964531805101434, guid: e6fd1715965d63043a413dea8f583622,
    type: 2}
  m_PrefabInternal: {fileID: 695932033}
  m_GameObject: {fileID: 367816532}
  m_Enabled: 1
  m_Avatar: {fileID: 9000000, guid: 8c801f3e38e05f043911897bee63d4e2, type: 3}
  m_Controller: {fileID: 9100000, guid: 23e29e25d0f016847a74ddbd1df5b7a1, type: 2}
  m_CullingMode: 0
  m_UpdateMode: 0
  m_ApplyRootMotion: 0
  m_LinearVelocityBlending: 0
  m_WarningMessage: 
  m_HasTransformHierarchy: 1
  m_AllowConstantClipSamplingOptimization: 1
--- !u!23 &367816535
MeshRenderer:
  m_ObjectHideFlags: 0
  m_PrefabParentObject: {fileID: 23044034382215672, guid: e6fd1715965d63043a413dea8f583622,
    type: 2}
  m_PrefabInternal: {fileID: 695932033}
  m_GameObject: {fileID: 367816532}
  m_Enabled: 1
  m_CastShadows: 1
  m_ReceiveShadows: 1
  m_MotionVectors: 1
  m_LightProbeUsage: 1
  m_ReflectionProbeUsage: 1
  m_Materials:
  - {fileID: 2100000, guid: 1e8a3cd951c32fe4ba92fd9376c6de37, type: 2}
  m_StaticBatchInfo:
    firstSubMesh: 0
    subMeshCount: 0
  m_StaticBatchRoot: {fileID: 0}
  m_ProbeAnchor: {fileID: 0}
  m_LightProbeVolumeOverride: {fileID: 0}
  m_ScaleInLightmap: 1
  m_PreserveUVs: 0
  m_IgnoreNormalsForChartDetection: 0
  m_ImportantGI: 0
  m_SelectedEditorRenderState: 3
  m_MinimumChartSize: 4
  m_AutoUVMaxDistance: 0.5
  m_AutoUVMaxAngle: 89
  m_LightmapParameters: {fileID: 0}
  m_SortingLayerID: 0
  m_SortingLayer: 0
  m_SortingOrder: 0
--- !u!33 &367816536
MeshFilter:
  m_ObjectHideFlags: 0
  m_PrefabParentObject: {fileID: 33477892634079384, guid: e6fd1715965d63043a413dea8f583622,
    type: 2}
  m_PrefabInternal: {fileID: 695932033}
  m_GameObject: {fileID: 367816532}
  m_Mesh: {fileID: 4300000, guid: 8c801f3e38e05f043911897bee63d4e2, type: 3}
--- !u!1 &543346741
GameObject:
  m_ObjectHideFlags: 0
  m_PrefabParentObject: {fileID: 0}
  m_PrefabInternal: {fileID: 0}
  serializedVersion: 5
  m_Component:
  - component: {fileID: 543346743}
  - component: {fileID: 543346742}
  m_Layer: 0
  m_Name: Directional Light
  m_TagString: Untagged
  m_Icon: {fileID: 0}
  m_NavMeshLayer: 0
  m_StaticEditorFlags: 0
  m_IsActive: 1
--- !u!108 &543346742
Light:
  m_ObjectHideFlags: 0
  m_PrefabParentObject: {fileID: 0}
  m_PrefabInternal: {fileID: 0}
  m_GameObject: {fileID: 543346741}
  m_Enabled: 1
  serializedVersion: 8
  m_Type: 1
  m_Color: {r: 1, g: 0.95686275, b: 0.8392157, a: 1}
  m_Intensity: 1
  m_Range: 10
  m_SpotAngle: 30
  m_CookieSize: 10
  m_Shadows:
    m_Type: 2
    m_Resolution: -1
    m_CustomResolution: -1
    m_Strength: 1
    m_Bias: 0.05
    m_NormalBias: 0.4
    m_NearPlane: 0.2
  m_Cookie: {fileID: 0}
  m_DrawHalo: 0
  m_Flare: {fileID: 0}
  m_RenderMode: 0
  m_CullingMask:
    serializedVersion: 2
    m_Bits: 4294967295
  m_Lightmapping: 4
  m_AreaSize: {x: 1, y: 1}
  m_BounceIntensity: 1
  m_FalloffTable:
    m_Table[0]: 0
    m_Table[1]: 0
    m_Table[2]: 0
    m_Table[3]: 0
    m_Table[4]: 0
    m_Table[5]: 0
    m_Table[6]: 0
    m_Table[7]: 0
    m_Table[8]: 0
    m_Table[9]: 0
    m_Table[10]: 0
    m_Table[11]: 0
    m_Table[12]: 0
  m_ColorTemperature: 6570
  m_UseColorTemperature: 0
  m_ShadowRadius: 0
  m_ShadowAngle: 0
--- !u!4 &543346743
Transform:
  m_ObjectHideFlags: 0
  m_PrefabParentObject: {fileID: 0}
  m_PrefabInternal: {fileID: 0}
  m_GameObject: {fileID: 543346741}
  m_LocalRotation: {x: -0.16172776, y: -0.83732027, z: 0.39044887, w: -0.34682637}
  m_LocalPosition: {x: 0, y: 3, z: 0}
  m_LocalScale: {x: 1, y: 1, z: 1}
  m_Children: []
  m_Father: {fileID: 0}
  m_RootOrder: 1
  m_LocalEulerAnglesHint: {x: 50.000004, y: -225, z: 0}
--- !u!1001 &695932033
Prefab:
  m_ObjectHideFlags: 0
  serializedVersion: 2
  m_Modification:
    m_TransformParent: {fileID: 0}
    m_Modifications:
    - target: {fileID: 4090485074951322, guid: e6fd1715965d63043a413dea8f583622, type: 2}
      propertyPath: m_LocalPosition.x
      value: 0
      objectReference: {fileID: 0}
    - target: {fileID: 4090485074951322, guid: e6fd1715965d63043a413dea8f583622, type: 2}
      propertyPath: m_LocalPosition.y
      value: 0
      objectReference: {fileID: 0}
    - target: {fileID: 4090485074951322, guid: e6fd1715965d63043a413dea8f583622, type: 2}
      propertyPath: m_LocalPosition.z
      value: 0
      objectReference: {fileID: 0}
    - target: {fileID: 4090485074951322, guid: e6fd1715965d63043a413dea8f583622, type: 2}
      propertyPath: m_LocalRotation.x
      value: 0
      objectReference: {fileID: 0}
    - target: {fileID: 4090485074951322, guid: e6fd1715965d63043a413dea8f583622, type: 2}
      propertyPath: m_LocalRotation.y
      value: 0
      objectReference: {fileID: 0}
    - target: {fileID: 4090485074951322, guid: e6fd1715965d63043a413dea8f583622, type: 2}
      propertyPath: m_LocalRotation.z
      value: 0
      objectReference: {fileID: 0}
    - target: {fileID: 4090485074951322, guid: e6fd1715965d63043a413dea8f583622, type: 2}
      propertyPath: m_LocalRotation.w
      value: 1
      objectReference: {fileID: 0}
    - target: {fileID: 4090485074951322, guid: e6fd1715965d63043a413dea8f583622, type: 2}
      propertyPath: m_RootOrder
      value: 3
      objectReference: {fileID: 0}
    m_RemovedComponents: []
  m_ParentPrefab: {fileID: 100100000, guid: e6fd1715965d63043a413dea8f583622, type: 2}
  m_RootGameObject: {fileID: 970391986}
  m_IsPrefabParent: 0
--- !u!1 &970391986
GameObject:
  m_ObjectHideFlags: 0
  m_PrefabParentObject: {fileID: 1632052825836748, guid: e6fd1715965d63043a413dea8f583622,
    type: 2}
  m_PrefabInternal: {fileID: 695932033}
  serializedVersion: 5
  m_Component:
  - component: {fileID: 970391987}
  m_Layer: 0
  m_Name: Wooden Chest
  m_TagString: Untagged
  m_Icon: {fileID: 0}
  m_NavMeshLayer: 0
  m_StaticEditorFlags: 0
  m_IsActive: 1
--- !u!4 &970391987
Transform:
  m_ObjectHideFlags: 0
  m_PrefabParentObject: {fileID: 4090485074951322, guid: e6fd1715965d63043a413dea8f583622,
    type: 2}
  m_PrefabInternal: {fileID: 695932033}
  m_GameObject: {fileID: 970391986}
  m_LocalRotation: {x: 0, y: 0, z: 0, w: 1}
  m_LocalPosition: {x: 0, y: 0, z: 0}
  m_LocalScale: {x: 1, y: 1, z: 1}
  m_Children:
  - {fileID: 367816533}
  m_Father: {fileID: 0}
  m_RootOrder: 3
  m_LocalEulerAnglesHint: {x: 0, y: 0, z: 0}
--- !u!1 &1221320724
GameObject:
  m_ObjectHideFlags: 0
  m_PrefabParentObject: {fileID: 1235971837514044, guid: e6fd1715965d63043a413dea8f583622,
    type: 2}
  m_PrefabInternal: {fileID: 695932033}
  serializedVersion: 5
  m_Component:
  - component: {fileID: 1221320725}
  - component: {fileID: 1221320727}
  - component: {fileID: 1221320726}
  m_Layer: 0
  m_Name: chest_wooden_4
  m_TagString: Untagged
  m_Icon: {fileID: 0}
  m_NavMeshLayer: 0
  m_StaticEditorFlags: 0
  m_IsActive: 1
--- !u!4 &1221320725
Transform:
  m_ObjectHideFlags: 0
  m_PrefabParentObject: {fileID: 4302379191424374, guid: e6fd1715965d63043a413dea8f583622,
    type: 2}
  m_PrefabInternal: {fileID: 695932033}
  m_GameObject: {fileID: 1221320724}
  m_LocalRotation: {x: 0, y: -0, z: -0, w: 1}
  m_LocalPosition: {x: -0.00000008675824, y: -0.74102765, z: 0.08872207}
  m_LocalScale: {x: 1, y: 1, z: 1}
  m_Children: []
  m_Father: {fileID: 1561544491}
  m_RootOrder: 0
  m_LocalEulerAnglesHint: {x: 0, y: 0, z: 0}
--- !u!23 &1221320726
MeshRenderer:
  m_ObjectHideFlags: 0
  m_PrefabParentObject: {fileID: 23457633136154308, guid: e6fd1715965d63043a413dea8f583622,
    type: 2}
  m_PrefabInternal: {fileID: 695932033}
  m_GameObject: {fileID: 1221320724}
  m_Enabled: 1
  m_CastShadows: 1
  m_ReceiveShadows: 1
  m_MotionVectors: 1
  m_LightProbeUsage: 1
  m_ReflectionProbeUsage: 1
  m_Materials:
  - {fileID: 2100000, guid: 1e8a3cd951c32fe4ba92fd9376c6de37, type: 2}
  m_StaticBatchInfo:
    firstSubMesh: 0
    subMeshCount: 0
  m_StaticBatchRoot: {fileID: 0}
  m_ProbeAnchor: {fileID: 0}
  m_LightProbeVolumeOverride: {fileID: 0}
  m_ScaleInLightmap: 1
  m_PreserveUVs: 0
  m_IgnoreNormalsForChartDetection: 0
  m_ImportantGI: 0
  m_SelectedEditorRenderState: 3
  m_MinimumChartSize: 4
  m_AutoUVMaxDistance: 0.5
  m_AutoUVMaxAngle: 89
  m_LightmapParameters: {fileID: 0}
  m_SortingLayerID: 0
  m_SortingLayer: 0
  m_SortingOrder: 0
--- !u!33 &1221320727
MeshFilter:
  m_ObjectHideFlags: 0
  m_PrefabParentObject: {fileID: 33625983143538032, guid: e6fd1715965d63043a413dea8f583622,
    type: 2}
  m_PrefabInternal: {fileID: 695932033}
  m_GameObject: {fileID: 1221320724}
  m_Mesh: {fileID: 4300004, guid: 8c801f3e38e05f043911897bee63d4e2, type: 3}
--- !u!1 &1266063696
GameObject:
  m_ObjectHideFlags: 0
  m_PrefabParentObject: {fileID: 0}
  m_PrefabInternal: {fileID: 0}
  serializedVersion: 5
  m_Component:
  - component: {fileID: 1266063701}
  - component: {fileID: 1266063700}
  - component: {fileID: 1266063699}
  - component: {fileID: 1266063698}
  - component: {fileID: 1266063697}
  m_Layer: 0
  m_Name: Main Camera
  m_TagString: MainCamera
  m_Icon: {fileID: 0}
  m_NavMeshLayer: 0
  m_StaticEditorFlags: 0
  m_IsActive: 1
--- !u!81 &1266063697
AudioListener:
  m_ObjectHideFlags: 0
  m_PrefabParentObject: {fileID: 0}
  m_PrefabInternal: {fileID: 0}
  m_GameObject: {fileID: 1266063696}
  m_Enabled: 1
--- !u!124 &1266063698
Behaviour:
  m_ObjectHideFlags: 0
  m_PrefabParentObject: {fileID: 0}
  m_PrefabInternal: {fileID: 0}
  m_GameObject: {fileID: 1266063696}
  m_Enabled: 1
--- !u!92 &1266063699
Behaviour:
  m_ObjectHideFlags: 0
  m_PrefabParentObject: {fileID: 0}
  m_PrefabInternal: {fileID: 0}
  m_GameObject: {fileID: 1266063696}
  m_Enabled: 1
--- !u!20 &1266063700
Camera:
  m_ObjectHideFlags: 0
  m_PrefabParentObject: {fileID: 0}
  m_PrefabInternal: {fileID: 0}
  m_GameObject: {fileID: 1266063696}
  m_Enabled: 1
  serializedVersion: 2
  m_ClearFlags: 1
  m_BackGroundColor: {r: 0.19215687, g: 0.3019608, b: 0.4745098, a: 0}
  m_NormalizedViewPortRect:
    serializedVersion: 2
    x: 0
    y: 0
    width: 1
    height: 1
  near clip plane: 0.3
  far clip plane: 1000
  field of view: 60
  orthographic: 0
  orthographic size: 5
  m_Depth: -1
  m_CullingMask:
    serializedVersion: 2
    m_Bits: 4294967295
  m_RenderingPath: -1
  m_TargetTexture: {fileID: 0}
  m_TargetDisplay: 0
  m_TargetEye: 3
  m_HDR: 1
  m_AllowMSAA: 1
  m_ForceIntoRT: 0
  m_OcclusionCulling: 1
  m_StereoConvergence: 10
  m_StereoSeparation: 0.022
  m_StereoMirrorMode: 0
--- !u!4 &1266063701
Transform:
  m_ObjectHideFlags: 0
  m_PrefabParentObject: {fileID: 0}
  m_PrefabInternal: {fileID: 0}
  m_GameObject: {fileID: 1266063696}
  m_LocalRotation: {x: -0.000000079136754, y: 0.9063079, z: -0.42261827, w: -0.00000016970932}
  m_LocalPosition: {x: 0, y: 1.8, z: 1.2}
  m_LocalScale: {x: 1, y: 1, z: 1}
  m_Children: []
  m_Father: {fileID: 0}
  m_RootOrder: 0
  m_LocalEulerAnglesHint: {x: 50, y: 180.00002, z: 0}
--- !u!1 &1561544490
GameObject:
  m_ObjectHideFlags: 0
  m_PrefabParentObject: {fileID: 1017830558724990, guid: e6fd1715965d63043a413dea8f583622,
    type: 2}
  m_PrefabInternal: {fileID: 695932033}
  serializedVersion: 5
  m_Component:
  - component: {fileID: 1561544491}
  - component: {fileID: 1561544493}
  - component: {fileID: 1561544492}
  m_Layer: 0
  m_Name: chest_wooden_5
  m_TagString: Untagged
  m_Icon: {fileID: 0}
  m_NavMeshLayer: 0
  m_StaticEditorFlags: 0
  m_IsActive: 1
--- !u!4 &1561544491
Transform:
  m_ObjectHideFlags: 0
  m_PrefabParentObject: {fileID: 4495446002708878, guid: e6fd1715965d63043a413dea8f583622,
    type: 2}
  m_PrefabInternal: {fileID: 695932033}
  m_GameObject: {fileID: 1561544490}
  m_LocalRotation: {x: 0, y: -0, z: -0, w: 1}
  m_LocalPosition: {x: 0.000000038281176, y: 0.35681954, z: 0.5980267}
  m_LocalScale: {x: 1, y: 1, z: 1}
  m_Children:
  - {fileID: 1221320725}
  m_Father: {fileID: 367816533}
  m_RootOrder: 1
  m_LocalEulerAnglesHint: {x: 0, y: 0, z: 0}
--- !u!23 &1561544492
MeshRenderer:
  m_ObjectHideFlags: 0
  m_PrefabParentObject: {fileID: 23473552624965404, guid: e6fd1715965d63043a413dea8f583622,
    type: 2}
  m_PrefabInternal: {fileID: 695932033}
  m_GameObject: {fileID: 1561544490}
  m_Enabled: 1
  m_CastShadows: 1
  m_ReceiveShadows: 1
  m_MotionVectors: 1
  m_LightProbeUsage: 1
  m_ReflectionProbeUsage: 1
  m_Materials:
  - {fileID: 2100000, guid: 1e8a3cd951c32fe4ba92fd9376c6de37, type: 2}
  m_StaticBatchInfo:
    firstSubMesh: 0
    subMeshCount: 0
  m_StaticBatchRoot: {fileID: 0}
  m_ProbeAnchor: {fileID: 0}
  m_LightProbeVolumeOverride: {fileID: 0}
  m_ScaleInLightmap: 1
  m_PreserveUVs: 0
  m_IgnoreNormalsForChartDetection: 0
  m_ImportantGI: 0
  m_SelectedEditorRenderState: 3
  m_MinimumChartSize: 4
  m_AutoUVMaxDistance: 0.5
  m_AutoUVMaxAngle: 89
  m_LightmapParameters: {fileID: 0}
  m_SortingLayerID: 0
  m_SortingLayer: 0
  m_SortingOrder: 0
--- !u!33 &1561544493
MeshFilter:
  m_ObjectHideFlags: 0
  m_PrefabParentObject: {fileID: 33609948592031766, guid: e6fd1715965d63043a413dea8f583622,
    type: 2}
  m_PrefabInternal: {fileID: 695932033}
  m_GameObject: {fileID: 1561544490}
  m_Mesh: {fileID: 4300002, guid: 8c801f3e38e05f043911897bee63d4e2, type: 3}
--- !u!1 &1823247062
GameObject:
  m_ObjectHideFlags: 0
  m_PrefabParentObject: {fileID: 0}
  m_PrefabInternal: {fileID: 0}
  serializedVersion: 5
  m_Component:
  - component: {fileID: 1823247066}
  - component: {fileID: 1823247065}
  - component: {fileID: 1823247064}
  - component: {fileID: 1823247063}
  m_Layer: 0
  m_Name: Floor
  m_TagString: Untagged
  m_Icon: {fileID: 0}
  m_NavMeshLayer: 0
  m_StaticEditorFlags: 0
  m_IsActive: 1
--- !u!23 &1823247063
MeshRenderer:
  m_ObjectHideFlags: 0
  m_PrefabParentObject: {fileID: 0}
  m_PrefabInternal: {fileID: 0}
  m_GameObject: {fileID: 1823247062}
  m_Enabled: 1
  m_CastShadows: 1
  m_ReceiveShadows: 1
  m_MotionVectors: 1
  m_LightProbeUsage: 1
  m_ReflectionProbeUsage: 1
  m_Materials:
  - {fileID: 2100000, guid: 280924b04bd520241801d68538f527b7, type: 2}
  m_StaticBatchInfo:
    firstSubMesh: 0
    subMeshCount: 0
  m_StaticBatchRoot: {fileID: 0}
  m_ProbeAnchor: {fileID: 0}
  m_LightProbeVolumeOverride: {fileID: 0}
  m_ScaleInLightmap: 1
  m_PreserveUVs: 1
  m_IgnoreNormalsForChartDetection: 0
  m_ImportantGI: 0
  m_SelectedEditorRenderState: 3
  m_MinimumChartSize: 4
  m_AutoUVMaxDistance: 0.5
  m_AutoUVMaxAngle: 89
  m_LightmapParameters: {fileID: 0}
  m_SortingLayerID: 0
  m_SortingLayer: 0
  m_SortingOrder: 0
--- !u!64 &1823247064
MeshCollider:
  m_ObjectHideFlags: 0
  m_PrefabParentObject: {fileID: 0}
  m_PrefabInternal: {fileID: 0}
  m_GameObject: {fileID: 1823247062}
  m_Material: {fileID: 0}
  m_IsTrigger: 0
  m_Enabled: 1
  serializedVersion: 2
  m_Convex: 0
  m_InflateMesh: 0
  m_SkinWidth: 0.01
  m_Mesh: {fileID: 10209, guid: 0000000000000000e000000000000000, type: 0}
--- !u!33 &1823247065
MeshFilter:
  m_ObjectHideFlags: 0
  m_PrefabParentObject: {fileID: 0}
  m_PrefabInternal: {fileID: 0}
  m_GameObject: {fileID: 1823247062}
  m_Mesh: {fileID: 10209, guid: 0000000000000000e000000000000000, type: 0}
--- !u!4 &1823247066
Transform:
  m_ObjectHideFlags: 0
  m_PrefabParentObject: {fileID: 0}
  m_PrefabInternal: {fileID: 0}
  m_GameObject: {fileID: 1823247062}
  m_LocalRotation: {x: 0, y: 0, z: 0, w: 1}
  m_LocalPosition: {x: 0, y: 0, z: 0}
  m_LocalScale: {x: 1, y: 1, z: 1}
  m_Children: []
  m_Father: {fileID: 0}
  m_RootOrder: 2
  m_LocalEulerAnglesHint: {x: 0, y: 0, z: 0}
